…
---

    # A tibble: 36 x 6
        .rep .dgp_name .method_name .group .metric .estimate
       <int> <chr>     <chr>        <chr>  <chr>       <dbl>
     1     1 DGP1      Method       .all   rmse         5.82
     2     1 DGP1      Method       a      rmse         5.77
     3     1 DGP1      Method       b      rmse         5.86
     4     1 DGP1      Method       .all   rsq          1   
     5     1 DGP1      Method       a      rsq          1   
     6     1 DGP1      Method       b      rsq          1   
     7     1 DGP1      Method       .all   mae          5.05
     8     1 DGP1      Method       a      mae          5.00
     9     1 DGP1      Method       b      mae          5.10
    10     2 DGP1      Method       .all   rmse        64.0 
    # ... with 26 more rows
…
---

    # A tibble: 4 x 4
       .rep .dgp_name .method_name curve_estimate   
      <int> <chr>     <chr>        <list>           
    1     1 DGP1      Method       <pr_df [101 x 3]>
    2     2 DGP1      Method       <pr_df [101 x 3]>
    3     1 DGP2      Method       <pr_df [101 x 3]>
    4     2 DGP2      Method       <pr_df [101 x 3]>

---

    # A tibble: 202 x 9
    # Groups:   .dgp_name, .method_name, FPR [202]
       .dgp_name .method_name   FPR mean_TPR median_TPR min_TPR max_TPR sd_TPR
       <chr>     <chr>        <dbl>    <dbl>      <dbl>   <dbl>   <dbl>  <dbl>
     1 DGP1      Method        0        0          0       0       0         0
     2 DGP1      Method        0.01     0          0       0       0         0
     3 DGP1      Method        0.02     0          0       0       0         0
     4 DGP1      Method        0.03     0          0       0       0         0
     5 DGP1      Method        0.04     0.02       0.02    0.02    0.02      0
     6 DGP1      Method        0.05     0.02       0.02    0.02    0.02      0
     7 DGP1      Method        0.06     0.04       0.04    0.04    0.04      0
     8 DGP1      Method        0.07     0.04       0.04    0.04    0.04      0
     9 DGP1      Method        0.08     0.06       0.06    0.06    0.06      0
    10 DGP1      Method        0.09     0.08       0.08    0.08    0.08      0
    # ... with 192 more rows, and 1 more variable: raw_TPR <list>

---

    # A tibble: 202 x 9
    # Groups:   .dgp_name, .method_name, recall [202]
       .dgp_name .method_name recall mean_precision median_precision min_precision
       <chr>     <chr>         <dbl>          <dbl>            <dbl>         <dbl>
     1 DGP1      Method         0             1                1             1    
     2 DGP1      Method         0.01          1                1             1    
     3 DGP1      Method         0.02          0.5              0.5           0.5  
     4 DGP1      Method         0.03          0.333            0.333         0.333
     5 DGP1      Method         0.04          0.5              0.5           0.5  
     6 DGP1      Method         0.05          0.4              0.4           0.4  
     7 DGP1      Method         0.06          0.5              0.5           0.5  
     8 DGP1      Method         0.07          0.429            0.429         0.429
     9 DGP1      Method         0.08          0.5              0.5           0.5  
    10 DGP1      Method         0.09          0.444            0.444         0.444
    # ... with 192 more rows, and 3 more variables: max_precision <dbl>,
    #   sd_precision <dbl>, raw_precision <list>
…
---

    # A tibble: 4 x 4
       .rep .dgp_name .method_name curve_estimate  
      <int> <chr>     <chr>        <list>          
    1     1 DGP1      Method       <pr_df [16 x 4]>
    2     2 DGP1      Method       <pr_df [16 x 4]>
    3     1 DGP2      Method       <pr_df [16 x 4]>
    4     2 DGP2      Method       <pr_df [16 x 4]>

---

    # A tibble: 202 x 9
    # Groups:   .dgp_name, .method_name, FPR [202]
       .dgp_name .method_name   FPR mean_TPR median_TPR min_TPR max_TPR sd_TPR
       <chr>     <chr>        <dbl>    <dbl>      <dbl>   <dbl>   <dbl>  <dbl>
     1 DGP1      Method        0           0          0       0       0      0
     2 DGP1      Method        0.01        0          0       0       0      0
     3 DGP1      Method        0.02        0          0       0       0      0
     4 DGP1      Method        0.03        0          0       0       0      0
     5 DGP1      Method        0.04        0          0       0       0      0
     6 DGP1      Method        0.05        0          0       0       0      0
     7 DGP1      Method        0.06        0          0       0       0      0
     8 DGP1      Method        0.07        0          0       0       0      0
     9 DGP1      Method        0.08        0          0       0       0      0
    10 DGP1      Method        0.09        0          0       0       0      0
    # ... with 192 more rows, and 1 more variable: raw_TPR <list>

---

    # A tibble: 202 x 9
    # Groups:   .dgp_name, .method_name, recall [202]
       .dgp_name .method_name recall mean_precision median_precision min_precision
       <chr>     <chr>         <dbl>          <dbl>            <dbl>         <dbl>
     1 DGP1      Method         0                 1                1             1
     2 DGP1      Method         0.01              1                1             1
     3 DGP1      Method         0.02              1                1             1
     4 DGP1      Method         0.03              1                1             1
     5 DGP1      Method         0.04              1                1             1
     6 DGP1      Method         0.05              1                1             1
     7 DGP1      Method         0.06              1                1             1
     8 DGP1      Method         0.07              1                1             1
     9 DGP1      Method         0.08              1                1             1
    10 DGP1      Method         0.09              1                1             1
    # ... with 192 more rows, and 3 more variables: max_precision <dbl>,
    #   sd_precision <dbl>, raw_precision <list>

# Functions in Evaluator feature selection library work properly

    # A tibble: 36 x 5
        .rep .dgp_name .method_name .metric .estimate
       <int> <chr>     <chr>        <chr>       <dbl>
     1     1 DGP1      Method       tp          1    
     2     1 DGP1      Method       fp          0    
     3     1 DGP1      Method       sens        0.5  
     4     1 DGP1      Method       spec        1    
     5     1 DGP1      Method       ppv         1    
     6     1 DGP1      Method       pos         1    
     7     1 DGP1      Method       neg         2    
     8     1 DGP1      Method       roc_auc     0.5  
     9     1 DGP1      Method       pr_auc      0.792
    10     2 DGP1      Method       tp          1    
    # ... with 26 more rows
…
---

    # A tibble: 4 x 4
       .rep .dgp_name .method_name curve_estimate 
      <int> <chr>     <chr>        <list>         
    1     1 DGP1      Method       <pr_df [4 x 3]>
    2     2 DGP1      Method       <pr_df [4 x 3]>
    3     1 DGP2      Method       <pr_df [4 x 3]>
    4     2 DGP2      Method       <pr_df [4 x 3]>

---

    # A tibble: 202 x 9
    # Groups:   .dgp_name, .method_name, FPR [202]
       .dgp_name .method_name   FPR mean_TPR median_TPR min_TPR max_TPR sd_TPR
       <chr>     <chr>        <dbl>    <dbl>      <dbl>   <dbl>   <dbl>  <dbl>
     1 DGP1      Method        0        0.75       0.75     0.5       1  0.354
     2 DGP1      Method        0.01     0.75       0.75     0.5       1  0.354
     3 DGP1      Method        0.02     0.75       0.75     0.5       1  0.354
     4 DGP1      Method        0.03     0.75       0.75     0.5       1  0.354
     5 DGP1      Method        0.04     0.75       0.75     0.5       1  0.354
     6 DGP1      Method        0.05     0.75       0.75     0.5       1  0.354
     7 DGP1      Method        0.06     0.75       0.75     0.5       1  0.354
     8 DGP1      Method        0.07     0.75       0.75     0.5       1  0.354
     9 DGP1      Method        0.08     0.75       0.75     0.5       1  0.354
    10 DGP1      Method        0.09     0.75       0.75     0.5       1  0.354
    # ... with 192 more rows, and 1 more variable: raw_TPR <list>

---

    # A tibble: 202 x 9
    # Groups:   .dgp_name, .method_name, recall [202]
       .dgp_name .method_name recall mean_precision median_precision min_precision
       <chr>     <chr>         <dbl>          <dbl>            <dbl>         <dbl>
     1 DGP1      Method         0                 1                1             1
     2 DGP1      Method         0.01              1                1             1
     3 DGP1      Method         0.02              1                1             1
     4 DGP1      Method         0.03              1                1             1
     5 DGP1      Method         0.04              1                1             1
     6 DGP1      Method         0.05              1                1             1
     7 DGP1      Method         0.06              1                1             1
     8 DGP1      Method         0.07              1                1             1
     9 DGP1      Method         0.08              1                1             1
    10 DGP1      Method         0.09              1                1             1
    # ... with 192 more rows, and 3 more variables: max_precision <dbl>,
    #   sd_precision <dbl>, raw_precision <list>
…
# Functions in Evaluator inference library work properly

    # A tibble: 36 x 6
        .rep .dgp_name .method_name .alpha .metric .estimate
       <int> <chr>     <chr>         <dbl> <chr>       <dbl>
     1     1 DGP1      Method         0.05 tp          0    
     2     1 DGP1      Method         0.05 fp          1    
     3     1 DGP1      Method         0.05 sens        0    
     4     1 DGP1      Method         0.05 spec        0    
     5     1 DGP1      Method         0.05 ppv         0    
     6     1 DGP1      Method         0.05 pos         1    
     7     1 DGP1      Method         0.05 neg         2    
     8     1 DGP1      Method         0.05 roc_auc     0    
     9     1 DGP1      Method         0.05 pr_auc      0.417
    10     2 DGP1      Method         0.05 tp          0    
    # ... with 26 more rows
…
    # A tibble: 4 x 10
    # Groups:   .dgp_name, .method_name, .metric, .alpha [4]
      .dgp_name .method_name .metric .alpha mean_testing_err median_testing_err
      <chr>     <chr>        <chr>    <dbl>            <dbl>              <dbl>
    1 DGP1      Method       sens      0.05              0                  0  
    2 DGP1      Method       spec      0.05              0                  0  
    3 DGP2      Method       sens      0.05              0.5                0.5
    4 DGP2      Method       spec      0.05              0                  0  
    # ... with 4 more variables: min_testing_err <dbl>, max_testing_err <dbl>,
    #   sd_testing_err <dbl>, raw_testing_err <list>

---

    # A tibble: 72 x 6
        .rep .dgp_name .method_name .alpha .metric .estimate
       <int> <chr>     <chr>         <dbl> <chr>       <dbl>
     1     1 DGP1      Method         0.05 tp          0    
     2     1 DGP1      Method         0.05 fp          1    
     3     1 DGP1      Method         0.05 sens        0    
     4     1 DGP1      Method         0.05 spec        0    
     5     1 DGP1      Method         0.05 ppv         0    
     6     1 DGP1      Method         0.05 pos         1    
     7     1 DGP1      Method         0.05 neg         2    
     8     1 DGP1      Method         0.05 roc_auc     0    
     9     1 DGP1      Method         0.05 pr_auc      0.417
    10     1 DGP1      Method         0.1  tp          0    
    # ... with 62 more rows

---

    # A tibble: 36 x 10
    # Groups:   .dgp_name, .method_name, .metric, .alpha [36]
       .dgp_name .method_name .metric .alpha mean_testing_err median_testing_err
       <chr>     <chr>        <chr>    <dbl>            <dbl>              <dbl>
     1 DGP1      Method       fp        0.05            1                  1    
     2 DGP1      Method       fp        0.1             1                  1    
     3 DGP1      Method       neg       0.05            2                  2    
     4 DGP1      Method       neg       0.1             1.5                1.5  
     5 DGP1      Method       pos       0.05            1                  1    
     6 DGP1      Method       pos       0.1             1.5                1.5  
     7 DGP1      Method       ppv       0.05            0                  0    
     8 DGP1      Method       ppv       0.1             0.25               0.25 
     9 DGP1      Method       pr_auc    0.05            0.417              0.417
    10 DGP1      Method       pr_auc    0.1             0.417              0.417
    # ... with 26 more rows, and 4 more variables: min_testing_err <dbl>,
    #   max_testing_err <dbl>, sd_testing_err <dbl>, raw_testing_err <list>
…
---

    # A tibble: 4 x 4
       .rep .dgp_name .method_name curve_estimate 
      <int> <chr>     <chr>        <list>         
    1     1 DGP1      Method       <pr_df [4 x 3]>
    2     2 DGP1      Method       <pr_df [4 x 3]>
    3     1 DGP2      Method       <pr_df [4 x 3]>
    4     2 DGP2      Method       <pr_df [4 x 3]>

---

    # A tibble: 202 x 9
    # Groups:   .dgp_name, .method_name, FPR [202]
       .dgp_name .method_name   FPR mean_TPR median_TPR min_TPR max_TPR sd_TPR
       <chr>     <chr>        <dbl>    <dbl>      <dbl>   <dbl>   <dbl>  <dbl>
     1 DGP1      Method        0           0          0       0       0      0
     2 DGP1      Method        0.01        0          0       0       0      0
     3 DGP1      Method        0.02        0          0       0       0      0
     4 DGP1      Method        0.03        0          0       0       0      0
     5 DGP1      Method        0.04        0          0       0       0      0
     6 DGP1      Method        0.05        0          0       0       0      0
     7 DGP1      Method        0.06        0          0       0       0      0
     8 DGP1      Method        0.07        0          0       0       0      0
     9 DGP1      Method        0.08        0          0       0       0      0
    10 DGP1      Method        0.09        0          0       0       0      0
    # ... with 192 more rows, and 1 more variable: raw_TPR <list>

---

    # A tibble: 202 x 9
    # Groups:   .dgp_name, .method_name, recall [202]
       .dgp_name .method_name recall mean_precision median_precision min_precision
       <chr>     <chr>         <dbl>          <dbl>            <dbl>         <dbl>
     1 DGP1      Method         0                 1                1             1
     2 DGP1      Method         0.01              1                1             1
     3 DGP1      Method         0.02              1                1             1
     4 DGP1      Method         0.03              1                1             1
     5 DGP1      Method         0.04              1                1             1
     6 DGP1      Method         0.05              1                1             1
     7 DGP1      Method         0.06              1                1             1
     8 DGP1      Method         0.07              1                1             1
     9 DGP1      Method         0.08              1                1             1
    10 DGP1      Method         0.09              1                1             1
    # ... with 192 more rows, and 3 more variables: max_precision <dbl>,
    #   sd_precision <dbl>, raw_precision <list>
…
