…
      3 isn't in vec
      3 isn't in vec
      3 isn't in vec
      3 isn't in vec
    Warning <simpleWarning>
      rho must be greater than 0.5
    Message <simpleMessage>
      3 isn't in vec
      3 isn't in vec
      3 isn't in vec
      3 isn't in vec
      Fitting completed | time taken: _x_ minutes
      ==============================
    Output
      # A tibble: 48 x 14
         rep   dgp_name method_name param2 vec       rho_dgp noise_level_dgp rho_method
         <chr> <chr>    <chr>        <dbl> <list>    <lgl>   <lgl>           <lgl>     
       1 1     dgp1     method_test      2 <dbl [3]> NA      NA              NA        
       2 1     dgp1     method_test      4 <dbl [3]> NA      NA              NA        
       3 1     dgp1     method_test      2 <int [4]> NA      NA              NA        
       4 1     dgp1     method_test      4 <int [4]> NA      NA              NA        
       5 1     dgp1     method_test      2 <dbl [3]> NA      NA              NA        
       6 1     dgp1     method_test      4 <dbl [3]> NA      NA              NA        
       7 1     dgp1     method_test      2 <int [4]> NA      NA              NA        
       8 1     dgp1     method_test      4 <int [4]> NA      NA              NA        
       9 1     dgp_test method_test      2 <dbl [3]> NA      NA              NA        
      10 1     dgp_test method_test      4 <dbl [3]> NA      NA              NA        
      # ... with 38 more rows, and 6 more variables: noise_level_method <lgl>,
      #   rho <dbl>, noise_level <dbl>, .n <dbl>, .rho <dbl>, .noise_level <dbl>
…
