simChef: A comprehensive guide • simChef
…
#> Fit results saved | time taken: 0.025724 seconds
#> 10 reps completed (totals: 10/10) | time taken: 0.144608 minutes
#> ==============================
#> Evaluating Linear Regression Experiment...
#> Evaluation completed | time taken: 0.000168 minutes
#> Saving eval results...
#> Eval results saved | time taken: 0.027669 seconds
#> ==============================
#> Visualizing Linear Regression Experiment...
#> Visualization completed | time taken: 0.000227 minutes
#> Saving viz results...
#> Viz results saved | time taken: 0.091859 seconds
#> ==============================
vary_results$fit_results
#> # A tibble: 40 × 6
#>    .rep  .dgp_name           .method_name sigma `X1 p-value` `X2 p-value`
#>    <chr> <chr>               <chr>        <dbl>        <dbl>        <dbl>
#>  1 1     Linear Gaussian DGP OLS              1     1.29e-31        0.300
#>  2 1     Linear Gaussian DGP OLS              2     6.56e- 8        0.975
#>  3 1     Linear Gaussian DGP OLS              4     6.78e- 4        0.692
#>  4 1     Linear Gaussian DGP OLS              8     5.55e- 2        0.955
#>  5 2     Linear Gaussian DGP OLS              1     7.20e-32        0.971
#>  6 2     Linear Gaussian DGP OLS              2     1.51e-11        0.281
#>  7 2     Linear Gaussian DGP OLS              4     8.09e- 4        0.301
#>  8 2     Linear Gaussian DGP OLS              8     4.96e- 1        0.922
#>  9 3     Linear Gaussian DGP OLS              1     5.10e-32        0.944
#> 10 3     Linear Gaussian DGP OLS              2     2.48e-12        0.429
#> # ℹ 30 more rows
…
#> Fit results saved | time taken: 0.046635 seconds
#> 10 reps completed (totals: 10/10) | time taken: 0.147674 minutes
#> ==============================
#> Evaluating Linear Regression Experiment...
#> Evaluation completed | time taken: 0.000099 minutes
#> Saving eval results...
#> Eval results saved | time taken: 0.028360 seconds
#> ==============================
#> Visualizing Linear Regression Experiment...
#> Visualization completed | time taken: 0.000178 minutes
#> Saving viz results...
#> Viz results saved | time taken: 0.102311 seconds
#> ==============================
vary_results$fit_results
#> # A tibble: 40 × 6
#>    .rep  .dgp_name           .method_name sigma `X1 p-value` `X2 p-value`
#>    <chr> <chr>               <chr>        <dbl>        <dbl>        <dbl>
#>  1 1     Linear Gaussian DGP OLS              1     1.15e-36       0.365 
#>  2 1     Linear Gaussian DGP OLS              2     6.67e-10       0.927 
#>  3 1     Linear Gaussian DGP OLS              4     2.98e- 2       0.833 
#>  4 1     Linear Gaussian DGP OLS              8     5.00e- 1       0.267 
#>  5 2     Linear Gaussian DGP OLS              1     1.07e-37       0.719 
#>  6 2     Linear Gaussian DGP OLS              2     3.43e-12       0.398 
#>  7 2     Linear Gaussian DGP OLS              4     3.35e- 5       0.446 
#>  8 2     Linear Gaussian DGP OLS              8     6.79e- 1       0.0588
#>  9 3     Linear Gaussian DGP OLS              1     2.89e-36       0.933 
#> 10 3     Linear Gaussian DGP OLS              2     9.61e-13       0.0187
#> # ℹ 30 more rows
…
