Parallel strategies in `simChef` • simChef
…
suppressWarnings(
  experiment$fit(
    n_reps = 2, parallel_strategy = c("reps", "dgps")
  )
)
#> Fitting base...
#> Fitting completed | time taken: 0.282738 minutes
#> ==============================
#> # A tibble: 136 × 16
#>      rep dgp_name   method_name     p   rho sparsity nonzero_coeff alpha term   
#>    <int> <chr>      <chr>       <dbl> <dbl>    <dbl> <list>        <dbl> <list> 
#>  1     1 dense_dgp  elnet          NA  NA       NA   <NULL>          0   <chr […
#>  2     1 dense_dgp  elnet          NA  NA       NA   <NULL>          0.5 <chr […
#>  3     1 dense_dgp  elnet          NA  NA       NA   <NULL>          1   <chr […
#>  4     1 dense_dgp  ols            NA  NA       NA   <NULL>         NA   <chr […
#>  5     1 sparse_dgp elnet         100   0.2      0.5 <dbl [4]>       0   <chr […
#>  6     1 sparse_dgp elnet         100   0.2      0.5 <dbl [4]>       0.5 <chr […
#>  7     1 sparse_dgp elnet         100   0.2      0.5 <dbl [4]>       1   <chr […
#>  8     1 sparse_dgp elnet        1000   0.2      0.5 <dbl [4]>       0   <chr […
#>  9     1 sparse_dgp elnet        1000   0.2      0.5 <dbl [4]>       0.5 <chr […
#> 10     1 sparse_dgp elnet        1000   0.2      0.5 <dbl [4]>       1   <chr […
#> # … with 126 more rows, and 7 more variables: estimate <list>,
#> #   std.error <list>, statistic <list>, p.value <list>, step <list>,
#> #   lambda <list>, dev.ratio <list>
…
