Getting started with simChef • simChef
…
eval_results: output of Evaluators (see experiment$evaluate())

viz_results: output of Visualizers (see experiment$visualize())

str(results, max.level = 2)
#> List of 3
#>  $ fit_results : tibble [100 × 5] (S3: tbl_df/tbl/data.frame)
#>  $ eval_results:List of 1
#>   ..$ Rejection Prob. (alpha = 0.1): tibble [1 × 4] (S3: tbl_df/tbl/data.frame)
#>  $ viz_results :List of 1
#>   ..$ Power:List of 9
#>   .. ..- attr(*, "class")= chr [1:2] "gg" "ggplot"
results$fit_results
#> # A tibble: 100 × 5
#>    .rep  .dgp_name           .method_name `X1 p-value` `X2 p-value`
#>    <chr> <chr>               <chr>               <dbl>        <dbl>
#>  1 1     Linear Gaussian DGP OLS              4.90e-29       0.704 
#>  2 2     Linear Gaussian DGP OLS              4.28e-28       0.713 
#>  3 3     Linear Gaussian DGP OLS              1.60e-38       0.680 
#>  4 4     Linear Gaussian DGP OLS              2.31e-29       0.0115
#>  5 5     Linear Gaussian DGP OLS              8.08e-33       0.127 
#>  6 6     Linear Gaussian DGP OLS              8.95e-29       0.980 
#>  7 7     Linear Gaussian DGP OLS              6.84e-33       0.385 
#>  8 8     Linear Gaussian DGP OLS              6.60e-29       0.116 
#>  9 9     Linear Gaussian DGP OLS              4.16e-28       0.765 
#> 10 10    Linear Gaussian DGP OLS              1.28e-21       0.530 
#> # … with 90 more rows
…
